<svg xmlns="http://www.w3.org/2000/svg" width="160px" height="46px" xmlns:xlink="http://www.w3.org/1999/xlink" viewBox="0 0 160 46" preserveAspectRatio="xMidYMid meet" >
  <rect style="fill:white;fill-opacity:0;stroke:#262626;stroke-width:1px;" id="background" width="160" height="46"/>
  <text fill="#e9e9e9" font-family="Helvetica, sans-serif" font-size="22px" x="50%" y="30" dominant-baseline="middle" text-anchor="middle" id="text">Queue</text>
</svg>
